truck_id,maintenance_date,milage,service_type,maintenance_cost,service_center,technician_email,email_valid,model,purchase_date,purchase_cost,initial_milage
TRK002,2022-01-01,102787,repair,1635.99,,tech3@example.com,True,Titan Trekker,,44466.13,14502.0
TRK002,2022-01-01,102787,repair,1635.99,,tech3@example.com,True,Titan Trekker,2023-07-29,44466.13,14502.0
TRK002,2024-01-16,167381,maintenance,807.57,Center C,tech3@example.com,True,Titan Trekker,,44466.13,14502.0
TRK002,2024-01-16,167381,maintenance,807.57,Center C,tech3@example.com,True,Titan Trekker,2023-07-29,44466.13,14502.0
TRK010,2024-02-08,137948,inspection,801.37,Center A,incorrectEmailFormat,False,Voyager V8,2022-07-02,23624.26,2612.0
TRK010,2023-05-05,100084,inspection,1983.94,Center A,,False,Voyager V8,2022-07-02,23624.26,2612.0
TRK004,,65016,inspection,370.0,,tech2@sample,False,Voyager V8,2022-01-11,20922.5,8792.0
TRK014,2023-06-03,150546,nan,2701.93,Center A,tech2@sample,False,Sky Gazer,2023-04-28,38670.52,8226.0
TRK014,2024-01-29,129101,nan,1112.71,Center A,tech1@example.com,True,Sky Gazer,2023-04-28,38670.52,8226.0
,2023-02-19,199125,nan,2711.21,,tech2@sample,False,Sky Gazer,2021-08-22,,17159.0
,2023-12-12,175838,maintenance,2361.64,Center C,,False,Sky Gazer,2021-08-22,,17159.0
TRK015,2023-05-06,31959,maintenance,1935.99,,tech1@example.com,True,Quantum Cruiser,2023-02-02,,
TRK015,2023-02-26,83530,inspection,1961.89,,tech3@example.com,True,Quantum Cruiser,2023-02-02,,
TRK015,2023-12-23,78840,inspection,2705.81,,tech3@example.com,True,Quantum Cruiser,2023-02-02,,
TRK008,2023-07-21,146602,maintenance,1083.19,Center B,,False,Sky Gazer,2021-09-27,58950.22,10233.0
TRK008,2023-03-04,13748,inspection,2205.27,Center B,tech1@example.com,True,Sky Gazer,2021-09-27,58950.22,10233.0
TRK008,2024-01-15,75318,nan,1691.33,,,False,Sky Gazer,2021-09-27,58950.22,10233.0
TRK008,2023-09-06,103264,nan,750.38,Center C,tech1@example.com,True,Sky Gazer,2021-09-27,58950.22,10233.0
TRK008,2023-10-02,60859,nan,1166.38,Center A,,False,Sky Gazer,2021-09-27,58950.22,10233.0
TRK013,2023-08-18,137659,nan,2672.55,Center B,tech2@sample,False,Sky Gazer,2022-10-16,59329.24,12206.0
TRK013,2023-06-27,103557,nan,344.01,Center A,tech1@example.com,True,Sky Gazer,2022-10-16,59329.24,12206.0
TRK013,2023-11-09,128451,nan,1858.64,Center A,tech2@sample,False,Sky Gazer,2022-10-16,59329.24,12206.0
TRK009,2023-06-21,71087,nan,568.72,Center A,tech2@sample,False,Quantum Cruiser,2022-11-27,29310.85,11016.0
TRK009,2023-06-21,187648,inspection,2024.16,Center A,tech1@example.com,True,Quantum Cruiser,2022-11-27,29310.85,11016.0
TRK009,2023-12-13,187789,inspection,371.66,Center B,tech2@sample,False,Quantum Cruiser,2022-11-27,29310.85,11016.0
TRK001,2023-07-06,195456,inspection,126.67,Center A,tech3@example.com,True,Quantum Cruiser,2022-10-29,44699.26,8838.0
TRK001,2023-09-23,49353,inspection,114.68,Center C,,False,Quantum Cruiser,2022-10-29,44699.26,8838.0
TRK001,2023-06-15,122181,nan,1043.66,,,False,Quantum Cruiser,2022-10-29,44699.26,8838.0
TRK001,2023-10-28,80467,repair,2921.73,Center B,tech3@example.com,True,Quantum Cruiser,2022-10-29,44699.26,8838.0
TRK007,2023-06-27,61005,repair,394.27,Center B,tech2@sample,False,Eco Ranger,,8433.0,
TRK007,2023-12-09,179695,repair,2562.75,,,False,Eco Ranger,,8433.0,
TRK011,2024-01-08,164736,nan,2106.5,Center A,tech2@sample,False,Quantum Cruiser,2022-09-18,44735.44,15787.0
TRK003,2023-03-23,36736,maintenance,2165.32,Center A,,False,Titan Trekker,2021-06-17,20282.65,10627.0
TRK003,2023-08-10,122859,maintenance,788.02,Center A,tech1@example.com,True,Titan Trekker,2021-06-17,20282.65,10627.0
TRK003,2023-05-03,119751,repair,1930.0,,,False,Titan Trekker,2021-06-17,20282.65,10627.0
TRK005,2023-11-19,141926,nan,2264.83,Center C,tech1@example.com,True,Sky Gazer,2023-06-28,40990.99,10555.0
TRK005,2023-03-10,108506,inspection,2686.94,Center C,tech2@sample,False,Sky Gazer,2023-06-28,40990.99,10555.0
